^C:\USERS\CAMER\ONEDRIVE\DESKTOP\COLLEGE\YEAR2\OBJECT ORIENTED PROGRAMMING\PROGRAMS\THE COLLECTOR\THE COLLECTOR\MAIN.CPP
C:\USERS\CAMER\ONEDRIVE\DESKTOP\COLLEGE\YEAR2\OBJECT ORIENTED PROGRAMMING\PROGRAMS\THE COLLECTOR\THE COLLECTOR\DEBUG\VC141.PDB
C:\USERS\CAMER\ONEDRIVE\DESKTOP\COLLEGE\YEAR2\OBJECT ORIENTED PROGRAMMING\PROGRAMS\THE COLLECTOR\THE COLLECTOR\DEBUG\VC141.IDB
C:\USERS\CAMER\ONEDRIVE\DESKTOP\COLLEGE\YEAR2\OBJECT ORIENTED PROGRAMMING\PROGRAMS\THE COLLECTOR\THE COLLECTOR\DEBUG\MAIN.OBJ
^D:\FILE SYNC\C\REP\COLLECTOR\THE COLLECTOR\THE COLLECTOR\ITEM.CPP|D:\FILE SYNC\C\REP\COLLECTOR\THE COLLECTOR\THE COLLECTOR\MAIN.CPP
D:\FILE SYNC\C\REP\COLLECTOR\THE COLLECTOR\THE COLLECTOR\DEBUG\VC141.PDB
D:\FILE SYNC\C\REP\COLLECTOR\THE COLLECTOR\THE COLLECTOR\DEBUG\VC141.IDB
D:\FILE SYNC\C\REP\COLLECTOR\THE COLLECTOR\THE COLLECTOR\DEBUG\MAIN.OBJ
D:\FILE SYNC\C\REP\COLLECTOR\THE COLLECTOR\THE COLLECTOR\DEBUG\ITEM.OBJ
^D:\FILE SYNC\C\REP\COLLECTOR\THE COLLECTOR\THE COLLECTOR\ITEM.CPP
D:\FILE SYNC\C\REP\COLLECTOR\THE COLLECTOR\THE COLLECTOR\DEBUG\VC141.PDB
^D:\FILE SYNC\C\REP\COLLECTOR\THE COLLECTOR\THE COLLECTOR\MAIN.CPP|D:\FILE SYNC\C\REP\COLLECTOR\THE COLLECTOR\THE COLLECTOR\PLAYER.CPP
D:\FILE SYNC\C\REP\COLLECTOR\THE COLLECTOR\THE COLLECTOR\DEBUG\VC141.PDB
D:\FILE SYNC\C\REP\COLLECTOR\THE COLLECTOR\THE COLLECTOR\DEBUG\VC141.IDB
D:\FILE SYNC\C\REP\COLLECTOR\THE COLLECTOR\THE COLLECTOR\DEBUG\PLAYER.OBJ
D:\FILE SYNC\C\REP\COLLECTOR\THE COLLECTOR\THE COLLECTOR\DEBUG\MAIN.OBJ
^D:\FILE SYNC\C\REP\COLLECTOR\THE COLLECTOR\THE COLLECTOR\MAIN.CPP
D:\FILE SYNC\C\REP\COLLECTOR\THE COLLECTOR\THE COLLECTOR\DEBUG\VC141.PDB
^D:\FILE SYNC\C\REP\COLLECTOR\THE COLLECTOR\THE COLLECTOR\PLAYER.CPP
D:\FILE SYNC\C\REP\COLLECTOR\THE COLLECTOR\THE COLLECTOR\DEBUG\VC141.PDB
